{
    "promotion": true,
    "bg": "promotion.bg",
    
    "com.accedo.plugin.LiveDotTv":{
        "pluginKey":"com.accedo.plugin.LiveDotTv",
        "enabled":false,
        "config":{
            "url":"http://live.tv",
            "options":"{}"
        }
    },
    "com.accedo.plugin.EpgDotTv":{
        "pluginKey":"com.accedo.plugin.EpgDotTv",
        "enabled":false,
        "config":{
            "url":"URL-TO-THE-EPG-FILE"
        }
    },
    "com.accedo.plugin.ThePlatformOnDemand":{
        "pluginKey":"com.accedo.plugin.ThePlatformOnDemand",
        "enabled":true,
        "config":{
            "tvSeriesCatId":"9768515932",
            "accountId":"http://access.auth.theplatform.com/data/Account/2301538417",
            "mediaObjectUrl":"http://data.media.theplatform.com/media/data/Media",
            "tvEpisodeCatId":"11240515733",
            "adminAuthenticationEndpoint":"https://identity.auth.theplatform.com/idm/web/Authentication",
            "pageSize":"6",
            "authenticationEndpointSchema":"1.0",
            "feedPid":"DwE21wX1pGqZ",
            "format":"json",
            "endUserAuthenticationEndpoint":"https://euid.theplatform.com/idm/web/Authentication",
            "pretty":"true",
            "schema":"1.2",
            "movieCatId":"9768515931",
            "endUserAuthenticationDirectoryId":"IJHRpd4czHsVFdob",
            "tvClipCatId":"11975747634",
            "feedBaseUrl":"http://feed.theplatform.com/f",
            "adminAuthenticationDirectoryId":"mpx",
            "categoryBaseUrl":"http://data.media.theplatform.com/media/data/Category/",
            "feedRegistryId":"xBrLJC",
            "ratingEndPointUrl":"http://data.social.community.theplatform.com/social/data/Rating"
        }
    },
    
    
    "navigation":[
                  {
                  "text":"Home",
                  "type":"home",
                  "enabled":true
                  },
                  {
                  "text":"Live TV",
                  "link":"link.collection.channels",
                  "enabled":true
                  },
                  {
                  "text":"TV Guide",
                  "type":"tvGuide",
                  "enabled":true
                  },
                  {
                  "text":"On Demand",
                  "type":"onDemand",
                  "enabled":true
                  },
                  {
                  "text":"My TV",
                  "type":"connect",
                  "enabled":true
                  }
                  ],
    "link":{
        "collection":{
            "featuredMovies":{
                "type":"movieCollection",
                "feed":{
                    "url":"http://feed.theplatform.com/f/xBrLJC/cbomawJ4sB5n",
                    "options":{
                        
                    }
                }
            },
            "topRatedMovies":{
                "type":"movieCollection",
                "feed":{
                    "url":"http://feed.theplatform.com/f/xBrLJC/cbomawJ4sB5n",
                    "options":{
                        
                    }
                }
            },
            "linkB":{
                "type":"showCollection",
                "feed":{
                    "url":"http://feed.theplatform.com/f/xBrLJC/cbomawJ4sB5n",
                    "options":{
                        
                    }
                }
            },
            "linkC":{
                "type":"episodeCollection",
                "feed":{
                    "url":"http://feed.theplatform.com/f/xBrLJC/DwE21wX1pGqZ",
                    "options":{
                        
                    }
                }
            },
            "channels":{
                "type":"channelCollection",
                "feed":{
                    "url":"http://feed.theplatform.com/f/xBrLJC/cbomawJ4sB5n",
                    "options":{
                        
                    }
                }
            },
            "olympics":{
                "type":"channelCollection",
                "feed":{
                    "url":"http://feed.theplatform.com/f/xBrLJC/olympics",
                    "options":{
                        
                    }
                }
            }
        }
    },
    "promotion":true,
    "bg":"promotion.bg",
    "homePanel":[
                 {
                 "text":"Featured TV Shows",
                 "link":"link.collection.linkB"
                 },
                 {
                 "text":"Latest Episodes",
                 "link":"link.collection.linkC"
                 },
                 {
                 "text":"Featured Movies",
                 "link":"link.collection.featuredMovies"
                 },
                 {
                 "text":"Top Rated Movies",
                 "link":"link.collection.topRatedMovies"
                 }
                 ]
}