{
   "news":[
      {
         "channel":506,
         "name":"CNN",
         "logo":"mockup/channel_logo/cnn.png",
         "pay":false,
         "watching":2,
         "category":"news"
      },
      {
         "channel":508,
         "name":"BBC News",
         "logo":"mockup/channel_logo/bbc_news.png",
         "pay":false,
         "watching":3,
         "category":"news"
      },
      {
         "channel":537,
         "name":"NBC News",
         "logo":"mockup/channel_logo/nbc_news.png",
         "pay":false,
         "watching":12,
         "category":"news"
      }
   ],
   "sport":[
      {
         "channel":501,
         "name":"FOX Sports 1",
         "logo":"mockup/channel_logo/foxsports_1.png",
         "pay":false,
         "watching":3,
         "category":"sport"
      },
      {
         "channel":502,
         "name":"FOX Sports 2",
         "logo":"mockup/channel_logo/foxsports_2.png",
         "pay":false,
         "watching":5,
         "category":"sport"
      },
      {
         "channel":503,
         "name":"FOX Sports 3",
         "logo":"mockup/channel_logo/foxsports_3.png",
         "pay":false,
         "watching":6,
         "category":"sport"
      },
      {
         "channel":504,
         "name":"ESPN",
         "logo":"mockup/channel_logo/espn.png",
         "pay":true,
         "watching":2,
         "category":"sport"
      },
      {
         "channel":505,
         "name":"Euro Sport",
         "logo":"mockup/channel_logo/eurosports.png",
         "pay":true,
         "watching":4,
         "category":"sport"
      }
   ],
   "entertainment":[
      {
         "channel":509,
         "name":"Channel V",
         "logo":"mockup/channel_logo/channel_v.png",
         "pay":false,
         "watching":6,
         "category":"entertainment"
      },
      {
         "channel":513,
         "name":"Hulu",
         "logo":"mockup/channel_logo/hulu.png",
         "pay":true,
         "watching":3,
         "category":"entertainment"
      },
      {
         "channel":515,
         "name":"Fox 8",
         "logo":"mockup/channel_logo/fox_8.png",
         "pay":false,
         "watching":7,
         "category":"entertainment"
      },
      {
         "channel":519,
         "name":"HBO",
         "logo":"mockup/channel_logo/hbo.png",
         "pay":true,
         "watching":11,
         "category":"entertainment"
      }
   ],
   "kids":[
      {
         "channel":507,
         "name":"Kids Co.",
         "logo":"mockup/channel_logo/kids_co.png",
         "pay":false,
         "watching":5,
         "category":"kids"
      },
      {
         "channel":521,
         "name":"Cartoon Network",
         "logo":"mockup/channel_logo/cartoon_network.png",
         "pay":false,
         "watching":8,
         "category":"kids"
      },
      {
         "channel":527,
         "name":"Disney Channel",
         "logo":"mockup/channel_logo/disney_channel.png",
         "pay":true,
         "watching":3,
         "category":"kids"
      }
   ],
   "lifestyle":[
      {
         "channel":529,
         "name":"Discovery Home & Health",
         "logo":"mockup/channel_logo/discovery_home_health.png",
         "pay":false,
         "watching":5,
         "category":"lifestyle"
      },
      {
         "channel":530,
         "name":"Fashion TV",
         "logo":"mockup/channel_logo/fashion_tv.png",
         "pay":true,
         "watching":2,
         "category":"lifestyle"
      },
      {
         "channel":531,
         "name":"TLC",
         "logo":"mockup/channel_logo/TLC.png",
         "pay":false,
         "watching":6,
         "category":"lifestyle"
      }
   ]
}